<?xml version="1.0" encoding="UTF-8" standalone="no"?>
<!DOCTYPE svg PUBLIC "-//W3C//DTD SVG 1.1//EN"
 "http://www.w3.org/Graphics/SVG/1.1/DTD/svg11.dtd">
<!-- Generated by graphviz version 2.38.0 (20140413.2041)
 -->
<!-- Title: models_diagram Pages: 1 -->
<svg width="886pt" height="230pt"
 viewBox="0.00 0.00 885.65 230.00" xmlns="http://www.w3.org/2000/svg" xmlns:xlink="http://www.w3.org/1999/xlink">
<g id="graph0" class="graph" transform="scale(1 1) rotate(0) translate(4 226)">
<title>models_diagram</title>
<polygon fill="none" stroke="none" points="-4,4 -4,-226 881.646,-226 881.646,4 -4,4"/>
<!-- _diagram_info -->
<g id="node1" class="node"><title>_diagram_info</title>
<text text-anchor="start" x="8" y="-207.6" font-family="Times,serif" font-size="13.00">Models diagram</text>
<text text-anchor="start" x="8" y="-193.6" font-family="Times,serif" font-size="13.00">Date: Oct 05 2017 &#45; 10:33</text>
<text text-anchor="start" x="8" y="-179.6" font-family="Times,serif" font-size="13.00">Migration version: 20171004182350</text>
<text text-anchor="start" x="8" y="-165.6" font-family="Times,serif" font-size="13.00">Generated by RailRoady 1.5.2</text>
<text text-anchor="start" x="8" y="-151.6" font-family="Times,serif" font-size="13.00">http://railroady.prestonlee.com</text>
</g>
<!-- Badge -->
<g id="node2" class="node"><title>Badge</title>
<ellipse fill="none" stroke="black" cx="324" cy="-90" rx="33.2948" ry="18"/>
<text text-anchor="middle" x="324" y="-86.3" font-family="Times,serif" font-size="14.00">Badge</text>
</g>
<!-- ActivityType -->
<g id="node3" class="node"><title>ActivityType</title>
<ellipse fill="none" stroke="black" cx="469" cy="-90" rx="57.6901" ry="18"/>
<text text-anchor="middle" x="469" y="-86.3" font-family="Times,serif" font-size="14.00">ActivityType</text>
</g>
<!-- Acitivity -->
<g id="node10" class="node"><title>Acitivity</title>
<ellipse fill="none" stroke="black" cx="469" cy="-18" rx="42.4939" ry="18"/>
<text text-anchor="middle" x="469" y="-14.3" font-family="Times,serif" font-size="14.00">Acitivity</text>
</g>
<!-- ActivityType&#45;&gt;Acitivity -->
<g id="edge1" class="edge"><title>ActivityType&#45;&gt;Acitivity</title>
<path fill="none" stroke="#abc657" d="M469,-63.6398C469,-58.0629 469,-52.1319 469,-46.4761"/>
<ellipse fill="none" stroke="#abc657" cx="469" cy="-67.6966" rx="4" ry="4"/>
<polygon fill="#abc657" stroke="#abc657" points="469,-46.1043 473.5,-36.1043 469,-41.1043 469,-36.1043 469,-36.1043 469,-36.1043 469,-41.1043 464.5,-36.1044 469,-46.1043 469,-46.1043"/>
</g>
<!-- Category -->
<g id="node4" class="node"><title>Category</title>
<ellipse fill="none" stroke="black" cx="565" cy="-183" rx="42.7926" ry="18"/>
<text text-anchor="middle" x="565" y="-179.3" font-family="Times,serif" font-size="14.00">Category</text>
</g>
<!-- ApplicationRecord -->
<g id="node5" class="node"><title>ApplicationRecord</title>
<ellipse fill="none" stroke="black" cx="703" cy="-183" rx="77.1866" ry="18"/>
<text text-anchor="middle" x="703" y="-179.3" font-family="Times,serif" font-size="14.00">ApplicationRecord</text>
</g>
<!-- BadgeGroup -->
<g id="node6" class="node"><title>BadgeGroup</title>
<ellipse fill="none" stroke="black" cx="288" cy="-183" rx="55.7903" ry="18"/>
<text text-anchor="middle" x="288" y="-179.3" font-family="Times,serif" font-size="14.00">BadgeGroup</text>
</g>
<!-- BadgeGroup&#45;&gt;Badge -->
<g id="edge2" class="edge"><title>BadgeGroup&#45;&gt;Badge</title>
<path fill="none" stroke="#dd3651" d="M297.848,-157.107C302.748,-144.721 308.67,-129.752 313.638,-117.193"/>
<ellipse fill="none" stroke="#dd3651" cx="296.243" cy="-161.164" rx="4.00001" ry="4.00001"/>
<polygon fill="#dd3651" stroke="#dd3651" points="313.702,-117.031 321.565,-109.388 315.541,-112.382 317.381,-107.732 317.381,-107.732 317.381,-107.732 315.541,-112.382 313.196,-106.077 313.702,-117.031 313.702,-117.031"/>
</g>
<!-- User -->
<g id="node7" class="node"><title>User</title>
<ellipse fill="none" stroke="black" cx="389" cy="-183" rx="27.0966" ry="18"/>
<text text-anchor="middle" x="389" y="-179.3" font-family="Times,serif" font-size="14.00">User</text>
</g>
<!-- User&#45;&gt;Badge -->
<g id="edge3" class="edge"><title>User&#45;&gt;Badge</title>
<path fill="none" stroke="#3f7e1a" d="M371.682,-157.755C362.259,-144.563 350.639,-128.295 341.229,-115.121"/>
<polygon fill="#3f7e1a" stroke="#3f7e1a" points="371.865,-158.012 374.016,-168.765 374.772,-162.08 377.678,-166.149 377.678,-166.149 377.678,-166.149 374.772,-162.08 381.34,-163.533 371.865,-158.012 371.865,-158.012"/>
<polygon fill="#3f7e1a" stroke="#3f7e1a" points="341.223,-115.112 339.072,-104.359 338.317,-111.043 335.41,-106.975 335.41,-106.975 335.41,-106.975 338.317,-111.043 331.749,-109.59 341.223,-115.112 341.223,-115.112"/>
</g>
<!-- Activity -->
<g id="node8" class="node"><title>Activity</title>
<ellipse fill="none" stroke="black" cx="838" cy="-183" rx="39.7935" ry="18"/>
<text text-anchor="middle" x="838" y="-179.3" font-family="Times,serif" font-size="14.00">Activity</text>
</g>
<!-- Source -->
<g id="node9" class="node"><title>Source</title>
<ellipse fill="none" stroke="black" cx="469" cy="-183" rx="35.194" ry="18"/>
<text text-anchor="middle" x="469" y="-179.3" font-family="Times,serif" font-size="14.00">Source</text>
</g>
<!-- Source&#45;&gt;ActivityType -->
<g id="edge4" class="edge"><title>Source&#45;&gt;ActivityType</title>
<path fill="none" stroke="#96c260" d="M469,-156.729C469,-144.725 469,-130.362 469,-118.129"/>
<ellipse fill="none" stroke="#96c260" cx="469" cy="-160.884" rx="4" ry="4"/>
<polygon fill="#96c260" stroke="#96c260" points="469,-118.04 473.5,-108.04 469,-113.04 469,-108.04 469,-108.04 469,-108.04 469,-113.04 464.5,-108.04 469,-118.04 469,-118.04"/>
</g>
</g>
</svg>
